…
Use the function `generate_cases()` to generate synthetic data, so that
we can test the forecasting algorithm.

``` r
all_data <- generate_cases()
all_data
```

    ## # A tibble: 101 × 4
    ##      Day Date        Model Cases
    ##    <int> <date>      <dbl> <dbl>
    ##  1     1 2023-09-01 0          0
    ##  2     2 2023-09-02 0.0281     0
    ##  3     3 2023-09-03 0.0706     0
    ##  4     4 2023-09-04 0.0958     0
    ##  5     5 2023-09-05 0.116      0
    ##  6     6 2023-09-06 0.135      0
    ##  7     7 2023-09-07 0.156      0
    ##  8     8 2023-09-08 0.180      1
    ##  9     9 2023-09-09 0.207      0
    ## 10    10 2023-09-10 0.238      1
    ## # ℹ 91 more rows
…
